Do coalitions have a majority — have_majority • coalitions
…
#> The following object is masked from ‘package:testthat’:
#> 
#>     is_null
# get the latest survey for the sample German federal election polls
surveys <- get_latest(surveys_sample)
# check for majorities of two coalitions
coals <- list(c("cdu", "fdp"),
              c("spd", "left", "greens"))
# only use 100 simulations for a fast runtime
surveys <- surveys %>% mutate(draws = map(survey, draw_from_posterior, nsim = 100),
                              seats = map2(draws, survey, get_seats),
                              majorities = map(seats, have_majority, coalitions = coals))
surveys$majorities
#> [[1]]
#> # A tibble: 100 x 2
#>    cdu_fdp greens_left_spd
#>    <lgl>   <lgl>          
#>  1 FALSE   FALSE          
#>  2 FALSE   FALSE          
#>  3 FALSE   FALSE          
#>  4 FALSE   FALSE          
#>  5 FALSE   FALSE          
#>  6 FALSE   FALSE          
#>  7 FALSE   FALSE          
#>  8 FALSE   FALSE          
#>  9 FALSE   FALSE          
#> 10 FALSE   FALSE          
#> # … with 90 more rows
…
