Workflow • coalitions
…
## # A tibble: 6 x 4
##   date       survey           draws             seats            
##   <date>     <list>           <list>            <list>           
## 1 2019-03-02 <tibble [7 × 3]> <tibble [10 × 7]> <tibble [60 × 3]>
## 2 2019-02-23 <tibble [7 × 3]> <tibble [10 × 7]> <tibble [60 × 3]>
## 3 2019-02-16 <tibble [7 × 3]> <tibble [10 × 7]> <tibble [60 × 3]>
## 4 2019-02-09 <tibble [7 × 3]> <tibble [10 × 7]> <tibble [60 × 3]>
## 5 2019-02-02 <tibble [7 × 3]> <tibble [10 × 7]> <tibble [60 × 3]>
## 6 2019-01-26 <tibble [7 × 3]> <tibble [10 × 7]> <tibble [60 × 3]>

## sim column indicates simulated elections (rows in draws column)
elong %>% slice(1) %>% select(seats) %>% unnest()

## # A tibble: 60 x 3
##      sim party  seats
##    <int> <chr>  <int>
##  1     1 cdu      175
##  2     1 spd      119
##  3     1 greens   103
##  4     1 fdp       53
##  5     1 left      69
##  6     1 afd       79
##  7     2 cdu      176
##  8     2 spd      103
##  9     2 greens   104
## 10     2 fdp       57
## # … with 50 more rows
…
Wrapper

There is a wrapper function that directly returns probabilities:

elong <- collapse_parties(emnid)
elong %>% get_probabilities(., nsim=10) %>% unnest()

## # A tibble: 36 x 3
##    date       coalition       probability
##    <date>     <chr>                 <dbl>
##  1 2019-03-02 cdu                       0
##  2 2019-03-02 cdu_fdp                   0
##  3 2019-03-02 cdu_fdp_greens          100
##  4 2019-03-02 spd                       0
##  5 2019-03-02 left_spd                  0
##  6 2019-03-02 greens_left_spd           0
##  7 2019-02-23 cdu                       0
##  8 2019-02-23 cdu_fdp                   0
##  9 2019-02-23 cdu_fdp_greens          100
## 10 2019-02-23 spd                       0
## # … with 26 more rows
…
